\relax 
\@writefile{toc}{\contentsline {chapter}{\numberline {6}Discussion and Conclusion}{54}}
\@writefile{lof}{\addvspace {10\p@ }}
\@writefile{lot}{\addvspace {10\p@ }}
\@writefile{toc}{\contentsline {section}{\numberline {6.1}Further improvements and Future works}{54}}
\@writefile{toc}{\contentsline {paragraph}{Gesture Recognition}{55}}
\@writefile{lof}{\contentsline {figure}{\numberline {6.1}{\ignorespaces Complete future design for the gesture recognition, considering both the acquisition of the signal and the control of actuators.}}{55}}
\newlabel{fig:overall}{{6.1}{55}}
\citation{decenciere2013teleophta}
\@writefile{toc}{\contentsline {paragraph}{Microaneurisms Detection}{56}}
\@writefile{toc}{\contentsline {subparagraph}{Dataset:}{56}}
\@writefile{toc}{\contentsline {subparagraph}{Cropping:}{56}}
\@writefile{lof}{\contentsline {figure}{\numberline {6.2}{\ignorespaces The image illustrates the overlapped method of image cropping}}{56}}
\newlabel{fig:crop}{{6.2}{56}}
\@writefile{toc}{\contentsline {subparagraph}{Evaluation}{56}}
\citation{FPGA_Bacis}
\citation{holzinger2016interactive}
\citation{ravi2017deep}
\citation{ravi2017deep}
\@writefile{toc}{\contentsline {subparagraph}{Network}{57}}
\@writefile{toc}{\contentsline {subparagraph}{Hardware}{57}}
\@writefile{toc}{\contentsline {section}{\numberline {6.2}Final Considerations}{57}}
\@writefile{lof}{\contentsline {figure}{\numberline {6.3}{\ignorespaces Distribution of published papers that use deep learning in sub-areas of health informatics. Statistics are obtained from Google Scholar; the search phrase is defined as the sub-field name with the exact phrase deep learning and at least one of medical or health appearing, e.g. \IeC {\textquotedblleft }public health\IeC {\textquotedblright } \IeC {\textquotedblleft }deep learning\IeC {\textquotedblright } \cite  {ravi2017deep}.}}{58}}
\newlabel{fig:deep}{{6.3}{58}}
\@setckpt{Sections/conclusion}{
\setcounter{page}{59}
\setcounter{equation}{0}
\setcounter{enumi}{2}
\setcounter{enumii}{0}
\setcounter{enumiii}{0}
\setcounter{enumiv}{0}
\setcounter{footnote}{0}
\setcounter{mpfootnote}{0}
\setcounter{part}{0}
\setcounter{chapter}{6}
\setcounter{section}{2}
\setcounter{subsection}{0}
\setcounter{subsubsection}{0}
\setcounter{paragraph}{0}
\setcounter{subparagraph}{0}
\setcounter{figure}{3}
\setcounter{table}{0}
\setcounter{float@type}{4}
\setcounter{blindtext}{1}
\setcounter{Blindtext}{5}
\setcounter{blind@countparstart}{0}
\setcounter{blindlist}{0}
\setcounter{blindlistlevel}{0}
\setcounter{blindlist@level}{0}
\setcounter{blind@listcount}{0}
\setcounter{blind@levelcount}{0}
\setcounter{blind@randomcount}{0}
\setcounter{blind@randommax}{0}
\setcounter{blind@pangramcount}{0}
\setcounter{blind@pangrammax}{0}
}
