\relax 
\citation{khushaba2012electromyogram}
\@writefile{toc}{\contentsline {chapter}{\numberline {4}Materials and Methods}{39}}
\@writefile{lof}{\addvspace {10\p@ }}
\@writefile{lot}{\addvspace {10\p@ }}
\@writefile{toc}{\contentsline {section}{\numberline {4.1}Dataset}{39}}
\@writefile{toc}{\contentsline {paragraph}{EMG Signals}{39}}
\citation{niemeijer2010retinopathy}
\citation{decenciere2013teleophta}
\citation{kauppi2007diaretdb1}
\@writefile{toc}{\contentsline {paragraph}{Retinal Images from Fundus Camera}{40}}
\@writefile{lot}{\contentsline {table}{\numberline {4.1}{\ignorespaces Comparison between datasets for DR lesion recognition. The number of images line includes healthy images plus unhealthy images }}{40}}
\newlabel{tab:dataset}{{4.1}{40}}
\citation{kohavi1995study}
\@writefile{toc}{\contentsline {section}{\numberline {4.2}Case Study 1: Gesture Recognition through SVM}{41}}
\@writefile{toc}{\contentsline {subsection}{\numberline {4.2.1}Software Implementation}{41}}
\@writefile{lof}{\contentsline {figure}{\numberline {4.1}{\ignorespaces Coding matrix for 5 movements.}}{42}}
\newlabel{fig:codmat}{{4.1}{42}}
\@writefile{toc}{\contentsline {subsection}{\numberline {4.2.2}Hardware Implementation}{42}}
\@writefile{lot}{\contentsline {table}{\numberline {4.2}{\ignorespaces Occupation of resources on the FPGA of the operational cores.}}{43}}
\newlabel{tab:hw_res}{{4.2}{43}}
\@writefile{toc}{\contentsline {section}{\numberline {4.3}Case Study 2: Diabetic Retinopathy detection through CNN}{44}}
\@writefile{toc}{\contentsline {subsection}{\numberline {4.3.1}Dataset elaboration}{44}}
\@writefile{lot}{\contentsline {table}{\numberline {4.3}{\ignorespaces Image dimension before and after resizing}}{45}}
\newlabel{tab:dataset}{{4.3}{45}}
\@writefile{toc}{\contentsline {subsection}{\numberline {4.3.2}Software Implementation}{45}}
\@writefile{toc}{\contentsline {paragraph}{Classification procedure}{45}}
\@writefile{lof}{\contentsline {figure}{\numberline {4.2}{\ignorespaces General overview of segmentation algorithm composed by: Pre-processing and window extraction, Convolutional Neural Network application, Post-Processing }}{45}}
\newlabel{fig:algonn}{{4.2}{45}}
\citation{van2016fast}
\@writefile{lof}{\contentsline {figure}{\numberline {4.3}{\ignorespaces Implemented Convolutional Neural Network structure}}{47}}
\newlabel{fig:cnnimple}{{4.3}{47}}
\@writefile{lot}{\contentsline {table}{\numberline {4.4}{\ignorespaces Implemented Convolutional Neural Network details}}{47}}
\newlabel{tab:ourcnn}{{4.4}{47}}
\@writefile{toc}{\contentsline {paragraph}{Training procedure}{47}}
\citation{tf}
\@writefile{lot}{\contentsline {table}{\numberline {4.5}{\ignorespaces Convolutional Neural Network Training parameters }}{48}}
\newlabel{tab:train}{{4.5}{48}}
\@writefile{lof}{\contentsline {figure}{\numberline {4.4}{\ignorespaces The graphic represents the Cross-Entropy loss error in respect to the number of steps. At 9500 steps the training is completed.}}{49}}
\newlabel{fig:train}{{4.4}{49}}
\@setckpt{Sections/imple}{
\setcounter{page}{50}
\setcounter{equation}{1}
\setcounter{enumi}{2}
\setcounter{enumii}{0}
\setcounter{enumiii}{0}
\setcounter{enumiv}{0}
\setcounter{footnote}{0}
\setcounter{mpfootnote}{0}
\setcounter{part}{0}
\setcounter{chapter}{4}
\setcounter{section}{3}
\setcounter{subsection}{2}
\setcounter{subsubsection}{0}
\setcounter{paragraph}{0}
\setcounter{subparagraph}{0}
\setcounter{figure}{4}
\setcounter{table}{5}
\setcounter{float@type}{4}
\setcounter{blindtext}{1}
\setcounter{Blindtext}{5}
\setcounter{blind@countparstart}{0}
\setcounter{blindlist}{0}
\setcounter{blindlistlevel}{0}
\setcounter{blindlist@level}{0}
\setcounter{blind@listcount}{0}
\setcounter{blind@levelcount}{0}
\setcounter{blind@randomcount}{0}
\setcounter{blind@randommax}{0}
\setcounter{blind@pangramcount}{0}
\setcounter{blind@pangrammax}{0}
}
