\relax 
\@writefile{toc}{\contentsline {chapter}{\numberline {2}Literature Review and Problem definition}{12}}
\@writefile{lof}{\addvspace {10\p@ }}
\@writefile{lot}{\addvspace {10\p@ }}
\@writefile{toc}{\contentsline {section}{\numberline {2.1}The Algorithms}{12}}
\newlabel{sec:algorithms}{{2.1}{12}}
\@writefile{toc}{\contentsline {subsection}{\numberline {2.1.1}Support Vector Machine}{12}}
\citation{hsu2003practical}
\citation{mahmoodi2011fpga}
\@writefile{lof}{\contentsline {figure}{\numberline {2.1}{\ignorespaces Plane of separation between two classes in a three-dimensional space.}}{13}}
\newlabel{fig:hypsvm}{{2.1}{13}}
\citation{dietterich1995solving}
\@writefile{toc}{\contentsline {paragraph}{SVM multi-class}{14}}
\citation{ali2010design}
\citation{babu2014moving}
\@writefile{toc}{\contentsline {subsection}{\numberline {2.1.2}Artificial Neural Network}{15}}
\@writefile{lof}{\contentsline {figure}{\numberline {2.2}{\ignorespaces Structure of ANN and division in layers \cite  {babu2014moving}.}}{16}}
\newlabel{fig:layerann}{{2.2}{16}}
\@writefile{toc}{\contentsline {subsection}{\numberline {2.1.3}Convolutional Neural Network}{16}}
\newlabel{sec:cnn}{{2.1.3}{16}}
\citation{cnnstanford}
\citation{lecun1998gradient}
\citation{lecun1998gradient}
\citation{lecun1998gradient}
\@writefile{lof}{\contentsline {figure}{\numberline {2.3}{\ignorespaces CNN structure example with its main layers: Convolution, Subsampling and Fully Connected (LeNet5 \cite  {lecun1998gradient})}}{17}}
\newlabel{fig:cnn}{{2.3}{17}}
\newlabel{ref:convolve}{{2.4}{18}}
\newlabel{ref:relu}{{2.5}{18}}
\@writefile{lof}{\contentsline {figure}{\numberline {2.4}{\ignorespaces Convolutional layer structure: each kernel is convolved with the input volume, generating a feature map. Collecting all the feature maps the output volume is obtained.}}{18}}
\newlabel{fig:conv}{{2.4}{18}}
\@writefile{lof}{\contentsline {figure}{\numberline {2.5}{\ignorespaces Pooling layer: a NxM window (here N=2, M=2) is shifted over the image and the chosen operation is performed (average, maximum, median). The result is stored in the output matrix.}}{19}}
\newlabel{fig:pool}{{2.5}{19}}
\newlabel{ref:fc}{{2.6}{19}}
\newlabel{ref:softmax}{{2.7}{19}}
\citation{computing2013journal}
\@writefile{toc}{\contentsline {section}{\numberline {2.2}The role of the FPGA}{20}}
\@writefile{toc}{\contentsline {subsection}{\numberline {2.2.1}Problem definition}{20}}
\@writefile{toc}{\contentsline {subsection}{\numberline {2.2.2}The solution: Reconfigurable computing}{20}}
\citation{harris2010digital}
\@writefile{lof}{\contentsline {figure}{\numberline {2.6}{\ignorespaces Comparison between different type of hardware devices. Full Custom devices maximize performances, yet they are not flexible. Off-the-Shelf hardware is the most flexible solution, but its performances are low. The trade-off between them is represented by Reconfigurable Computing}}{22}}
\newlabel{fig:hw}{{2.6}{22}}
\citation{fpgaandillustrator}
\citation{fpgaandillustrator}
\@writefile{toc}{\contentsline {subsection}{\numberline {2.2.3}FPGA structure}{23}}
\@writefile{lof}{\contentsline {figure}{\numberline {2.7}{\ignorespaces  The following illustration shows the relationship between logic blocks, I/O blocks and programmable routing or programmable switches on an FPGA. \cite  {fpgaandillustrator}.}}{23}}
\newlabel{fig:fpgaarch}{{2.7}{23}}
\@writefile{toc}{\contentsline {subsection}{\numberline {2.2.4}High-level synthesis}{24}}
\@writefile{toc}{\contentsline {paragraph}{Vivado HLS}{24}}
\@writefile{toc}{\contentsline {paragraph}{Vivado IP Integrator}{24}}
\@writefile{toc}{\contentsline {paragraph}{Vivado SDK}{24}}
\@setckpt{Sections/letrev}{
\setcounter{page}{26}
\setcounter{equation}{7}
\setcounter{enumi}{3}
\setcounter{enumii}{0}
\setcounter{enumiii}{0}
\setcounter{enumiv}{0}
\setcounter{footnote}{0}
\setcounter{mpfootnote}{0}
\setcounter{part}{0}
\setcounter{chapter}{2}
\setcounter{section}{2}
\setcounter{subsection}{4}
\setcounter{subsubsection}{0}
\setcounter{paragraph}{0}
\setcounter{subparagraph}{0}
\setcounter{figure}{7}
\setcounter{table}{0}
\setcounter{float@type}{4}
\setcounter{blindtext}{1}
\setcounter{Blindtext}{5}
\setcounter{blind@countparstart}{0}
\setcounter{blindlist}{0}
\setcounter{blindlistlevel}{0}
\setcounter{blindlist@level}{0}
\setcounter{blind@listcount}{0}
\setcounter{blind@levelcount}{0}
\setcounter{blind@randomcount}{0}
\setcounter{blind@randommax}{0}
\setcounter{blind@pangramcount}{0}
\setcounter{blind@pangrammax}{0}
}
