\relax 
\@writefile{toc}{\contentsline {chapter}{\numberline {5}Results}{50}}
\@writefile{lof}{\addvspace {10\p@ }}
\@writefile{lot}{\addvspace {10\p@ }}
\@writefile{toc}{\contentsline {paragraph}{Gesture Recognition}{50}}
\@writefile{lot}{\contentsline {table}{\numberline {5.1}{\ignorespaces Accuracy of every trained class using SVM. Average of 5 runs.}}{50}}
\newlabel{tab:mat_confusion}{{5.1}{50}}
\@writefile{lot}{\contentsline {table}{\numberline {5.2}{\ignorespaces Measured time of execution and FPGA speedup of every operation on Intel, ARM and PL core. *execution failed.}}{51}}
\newlabel{tab:hw_perf}{{5.2}{51}}
\@writefile{toc}{\contentsline {paragraph}{Microaneurisms Detection}{51}}
\@writefile{toc}{\contentsline {paragraph}{Cross-entropy Loss:}{51}}
\@writefile{toc}{\contentsline {paragraph}{Accuracy:}{51}}
\@writefile{toc}{\contentsline {paragraph}{Time:}{52}}
\@writefile{lof}{\contentsline {figure}{\numberline {5.1}{\ignorespaces Classification time variation in function of the number of windows}}{52}}
\newlabel{fig:cnnimple}{{5.1}{52}}
\@writefile{toc}{\contentsline {paragraph}{FROC:}{52}}
\@setckpt{Sections/results}{
\setcounter{page}{54}
\setcounter{equation}{1}
\setcounter{enumi}{2}
\setcounter{enumii}{0}
\setcounter{enumiii}{0}
\setcounter{enumiv}{0}
\setcounter{footnote}{0}
\setcounter{mpfootnote}{0}
\setcounter{part}{0}
\setcounter{chapter}{5}
\setcounter{section}{0}
\setcounter{subsection}{0}
\setcounter{subsubsection}{0}
\setcounter{paragraph}{0}
\setcounter{subparagraph}{0}
\setcounter{figure}{1}
\setcounter{table}{2}
\setcounter{float@type}{4}
\setcounter{blindtext}{1}
\setcounter{Blindtext}{5}
\setcounter{blind@countparstart}{0}
\setcounter{blindlist}{0}
\setcounter{blindlistlevel}{0}
\setcounter{blindlist@level}{0}
\setcounter{blind@listcount}{0}
\setcounter{blind@levelcount}{0}
\setcounter{blind@randomcount}{0}
\setcounter{blind@randommax}{0}
\setcounter{blind@pangramcount}{0}
\setcounter{blind@pangrammax}{0}
}
