\relax 
\citation{mitra2007gesture}
\citation{rekhi2009multi}
\@writefile{toc}{\contentsline {chapter}{\numberline {3}State of Art and Related Work}{26}}
\@writefile{lof}{\addvspace {10\p@ }}
\@writefile{lot}{\addvspace {10\p@ }}
\@writefile{toc}{\contentsline {section}{\numberline {3.1}Gesture Recognition through Support Vector Machine}{26}}
\newlabel{sec:gesture}{{3.1}{26}}
\citation{cheung2012muscle}
\citation{tresch2002coordination}
\citation{bizzi2008combining}
\citation{lee1999learning}
\citation{yoshikawa2006real}
\citation{oskoei2008support}
\citation{liu2007recognition}
\citation{liu2007recognition}
\citation{yoshikawa2006real}
\citation{oskoei2008support}
\citation{yang2009emg}
\@writefile{lof}{\contentsline {figure}{\numberline {3.1}{\ignorespaces Muscle synergies.}}{28}}
\newlabel{fig:syn}{{3.1}{28}}
\citation{papadonikolakis2010novel}
\@writefile{lof}{\contentsline {figure}{\numberline {3.2}{\ignorespaces The following experiment compared the accuracy of the SVM with LDA and MLP. The classifiers were examined one-by-one over a single feature MAV, multi-feature MAV+WL+SSC+ZC, and multi-feature RMS + AR6, individually. The first four items of the graph are SVM-based classifiers, with RBF, linear, sigmoid, and polynomial kernels, respectively.}}{29}}
\newlabel{fig:confronto}{{3.2}{29}}
\citation{song2014fpga}
\@writefile{toc}{\contentsline {subsection}{\numberline {3.1.1}Support Vector Machine on FPGA}{30}}
\@writefile{lof}{\contentsline {figure}{\numberline {3.3}{\ignorespaces Testing results of linear models. The FPGA performances are expressed as a percentage in comparison to PC implementation}}{30}}
\newlabel{fig:tab2lin}{{3.3}{30}}
\@writefile{lof}{\contentsline {figure}{\numberline {3.4}{\ignorespaces Testing results of non-linear models. The FPGA performances are expressed as a percentage in comparison to PC implementation}}{31}}
\@writefile{toc}{\contentsline {section}{\numberline {3.2}Diabetic Retinopathy detection through Convolutional Neural Network}{31}}
\citation{shah2016automated}
\citation{wu2017automatic}
\citation{shah2016automated}
\citation{inoue2013automated}
\citation{shah2016automated}
\citation{frame1998comparison}
\citation{wu2017automatic}
\@writefile{toc}{\contentsline {paragraph}{The classical approach}{32}}
\citation{niemeijer2010retinopathy}
\citation{shah2016automated}
\citation{gulshan2016development}
\citation{pratt2016convolutional}
\@writefile{toc}{\contentsline {paragraph}{Deep learning approach: CNN application to Diabetic Retinopathy}{33}}
\@writefile{toc}{\contentsline {subparagraph}{Diabetic Retinopathy severity classification}{33}}
\citation{haloi2015improved}
\citation{van2016fast}
\citation{van2016fast}
\citation{greenspan2016guest}
\@writefile{toc}{\contentsline {subparagraph}{Lesion Segmentation}{34}}
\@writefile{toc}{\contentsline {paragraph}{Classical and Deep learning approach: a comparison}{34}}
\@writefile{lot}{\contentsline {table}{\numberline {3.1}{\ignorespaces Comparison between positive and negative aspects of Classical and Deep learning approach}}{34}}
\newlabel{tab:cnn_classical}{{3.1}{34}}
\citation{muthuramalingam2008neural}
\citation{raeisi2006implementation}
\citation{elrharras2015fpga}
\citation{sartin2014ann}
\@writefile{toc}{\contentsline {subsection}{\numberline {3.2.1}Artificial Neural Network on FPGA}{35}}
\@writefile{lof}{\contentsline {figure}{\numberline {3.5}{\ignorespaces ANN composed by more neurons \cite  {raeisi2006implementation}}}{35}}
\newlabel{fig:annfpga}{{3.5}{35}}
\citation{farabet2009cnp}
\@writefile{toc}{\contentsline {subsection}{\numberline {3.2.2}Convolutional Neural Network on FPGA}{36}}
\newlabel{sec:cnn_on_fpga}{{3.2.2}{36}}
\citation{farabet2009cnp}
\citation{qiu2016going}
\citation{FPGA_Bacis}
\@writefile{lof}{\contentsline {figure}{\numberline {3.6}{\ignorespaces FPGA-based system with VALU and direct memory access \cite  {farabet2009cnp} }}{37}}
\newlabel{fig:farabet}{{3.6}{37}}
\citation{FPGA_Bacis}
\citation{FPGA_Bacis}
\citation{del2016automation}
\citation{zhang2016caffeine}
\citation{del2016automation}
\@writefile{lof}{\contentsline {figure}{\numberline {3.7}{\ignorespaces An SST system with separation between memory and computing unit\cite  {FPGA_Bacis} }}{38}}
\newlabel{fig:sst}{{3.7}{38}}
\@setckpt{Sections/SoA}{
\setcounter{page}{39}
\setcounter{equation}{0}
\setcounter{enumi}{3}
\setcounter{enumii}{0}
\setcounter{enumiii}{0}
\setcounter{enumiv}{0}
\setcounter{footnote}{0}
\setcounter{mpfootnote}{0}
\setcounter{part}{0}
\setcounter{chapter}{3}
\setcounter{section}{2}
\setcounter{subsection}{2}
\setcounter{subsubsection}{0}
\setcounter{paragraph}{0}
\setcounter{subparagraph}{0}
\setcounter{figure}{7}
\setcounter{table}{1}
\setcounter{float@type}{4}
\setcounter{blindtext}{1}
\setcounter{Blindtext}{5}
\setcounter{blind@countparstart}{0}
\setcounter{blindlist}{0}
\setcounter{blindlistlevel}{0}
\setcounter{blindlist@level}{0}
\setcounter{blind@listcount}{0}
\setcounter{blind@levelcount}{0}
\setcounter{blind@randomcount}{0}
\setcounter{blind@randommax}{0}
\setcounter{blind@pangramcount}{0}
\setcounter{blind@pangrammax}{0}
}
