\relax 
\bibstyle{vancouver}
\@input{Sections/firstpage.aux}
\@input{Sections/dedication.aux}
\@input{Sections/abstract.aux}
\@input{Sections/introduction.aux}
\@input{Sections/letrev.aux}
\@input{Sections/SoA.aux}
\@input{Sections/imple.aux}
\@input{Sections/results.aux}
\@input{Sections/conclusion.aux}
\@input{Sections/ack.aux}
\bibdata{Sections/biblio}
